Programming in R
…
Replace negative values with NA for a specific variable

5.2.4.1 num_negative() function

Task: Write function called num_negative()

Write a function that counts the number of observations with negative values for a specific variable

Apply this function to variables from dataframe df (created below)

Adapted from Ben Skinners Programming 1 R Workshop HERE

# Sample dataframe `df` that contains some negative values
df
#> # A tibble: 100 x 4
#>       id   age sibage parage
#>    <int> <dbl>  <dbl>  <dbl>
#>  1     1    17      8     49
#>  2     2    15    -97     46
#>  3     3   -97    -97     53
#>  4     4    13     12     -4
#>  5     5   -97     10     47
#>  6     6    12     10     52
#>  7     7   -99      5     51
#>  8     8   -97     10     55
#>  9     9    16      6     51
#> 10    10    16    -99     -8
#> # ... with 90 more rows
…
